[gd_scene load_steps=6 format=2]

[ext_resource path="res://scripts/beam.gd" type="Script" id=1]

[sub_resource type="CapsuleShape2D" id=1]
resource_local_to_scene = true
radius = 35.0
height = 100.0

[sub_resource type="VisualShaderNodeColorConstant" id=2]

[sub_resource type="VisualShader" id=3]
code = "shader_type canvas_item;



void vertex() {
// Output:0

}

void fragment() {
// Output:0

}

void light() {
// Output:0

}
"
graph_offset = Vector2( -513, -72 )
mode = 1
flags/light_only = false
nodes/fragment/2/node = SubResource( 2 )
nodes/fragment/2/position = Vector2( 236, 191 )

[sub_resource type="ShaderMaterial" id=4]
shader = SubResource( 3 )

[node name="Beam" type="CollisionShape2D"]
rotation = 1.5708
z_index = 1
shape = SubResource( 1 )
script = ExtResource( 1 )

[node name="MainLine2D" type="Line2D" parent="."]
material = SubResource( 4 )
points = PoolVector2Array( 0, -50, 0, 50 )
width = 70.0
default_color = Color( 0.545098, 0.545098, 0.545098, 1 )
joint_mode = 2
begin_cap_mode = 2
end_cap_mode = 2
antialiased = true

[node name="DetailLine2D" type="Line2D" parent="."]
material = SubResource( 4 )
z_index = 1
points = PoolVector2Array( 0, -50, 0, 50 )
width = 50.0
default_color = Color( 0.654902, 0.654902, 0.654902, 1 )
joint_mode = 2
begin_cap_mode = 2
end_cap_mode = 2
antialiased = true
